Tutorial 6: Refactoring R Code
…
Type of response variable: nominal
Minimal misclassification: 0.004016064
Best kernel: optimal
Best k: 5

Results

We evaluate the performance of the model using the test dataset.

# Predict on test data
predictions <- predict(penguin_fit, test_data, type = "class") %>%
  bind_cols(test_data)
predictions

# A tibble: 84 × 6
   .pred_class species bill_length_mm bill_depth_mm flipper_length_mm
   <fct>       <fct>            <dbl>         <dbl>             <int>
 1 Adelie      Adelie            39.1          18.7               181
 2 Adelie      Adelie            39.5          17.4               186
 3 Adelie      Adelie            39.3          20.6               190
 4 Adelie      Adelie            36.6          17.8               185
 5 Adelie      Adelie            35.9          19.2               189
 6 Adelie      Adelie            38.2          18.1               185
 7 Adelie      Adelie            39.5          17.8               188
 8 Adelie      Adelie            42.2          18.5               180
 9 Adelie      Adelie            36.5          18                 182
10 Adelie      Adelie            39.6          17.7               186
# ℹ 74 more rows
# ℹ 1 more variable: body_mass_g <int>
…
